…
```r
# not sure what is wrong with this one...
```


```r
#fliter(mpg, cyl = 8), command name spelled wrong, "==" in place of "=" for logical "is equal too"
filter(mpg, cyl == 8)
```

```
## # A tibble: 70 x 11
##    manufacturer model displ  year   cyl trans drv     cty   hwy fl    class
##    <chr>        <chr> <dbl> <int> <int> <chr> <chr> <int> <int> <chr> <chr>
##  1 audi         a6 q~   4.2  2008     8 auto~ 4        16    23 p     mids~
##  2 chevrolet    c150~   5.3  2008     8 auto~ r        14    20 r     suv  
##  3 chevrolet    c150~   5.3  2008     8 auto~ r        11    15 e     suv  
##  4 chevrolet    c150~   5.3  2008     8 auto~ r        14    20 r     suv  
##  5 chevrolet    c150~   5.7  1999     8 auto~ r        13    17 r     suv  
##  6 chevrolet    c150~   6    2008     8 auto~ r        12    17 r     suv  
##  7 chevrolet    corv~   5.7  1999     8 manu~ r        16    26 p     2sea~
##  8 chevrolet    corv~   5.7  1999     8 auto~ r        15    23 p     2sea~
##  9 chevrolet    corv~   6.2  2008     8 manu~ r        16    26 p     2sea~
## 10 chevrolet    corv~   6.2  2008     8 auto~ r        15    25 p     2sea~
## # ... with 60 more rows
```


```r
#filter(diamond, carat > 3), the data set is called "diamonds", not "diamond" 
filter(diamonds, carat >3)
```

```
## # A tibble: 32 x 10
##    carat cut     color clarity depth table price     x     y     z
##    <dbl> <ord>   <ord> <ord>   <dbl> <dbl> <int> <dbl> <dbl> <dbl>
##  1  3.01 Premium I     I1       62.7    58  8040  9.1   8.97  5.67
##  2  3.11 Fair    J     I1       65.9    57  9823  9.15  9.02  5.98
##  3  3.01 Premium F     I1       62.2    56  9925  9.24  9.13  5.73
##  4  3.05 Premium E     I1       60.9    58 10453  9.26  9.25  5.66
##  5  3.02 Fair    I     I1       65.2    56 10577  9.11  9.02  5.91
##  6  3.01 Fair    H     I1       56.1    62 10761  9.54  9.38  5.31
##  7  3.65 Fair    H     I1       67.1    53 11668  9.53  9.48  6.38
##  8  3.24 Premium H     I1       62.1    58 12300  9.44  9.4   5.85
##  9  3.22 Ideal   I     I1       62.6    55 12545  9.49  9.42  5.92
## 10  3.5  Ideal   H     I1       62.8    57 12587  9.65  9.59  6.03
## # ... with 22 more rows
```
…
```r
# only grabs it the first time it is called.
```

#### 5.4.1.3  
What does the one_of() function do? Why might it be helpful in conjunction with this vector?

```r
vars <- c("year", "month", "day", "dep_delay", "arr_delay")
select(flights, one_of(vars)) #selects what is in the vector. Seems to be the same as just using "vars".
```

```
## # A tibble: 336,776 x 5
##     year month   day dep_delay arr_delay
##    <int> <int> <int>     <dbl>     <dbl>
##  1  2013     1     1         2        11
##  2  2013     1     1         4        20
##  3  2013     1     1         2        33
##  4  2013     1     1        -1       -18
##  5  2013     1     1        -6       -25
##  6  2013     1     1        -4        12
##  7  2013     1     1        -5        19
##  8  2013     1     1        -3       -14
##  9  2013     1     1        -3        -8
## 10  2013     1     1        -2         8
## # ... with 336,766 more rows
```

```r
#select(flights, vars)
```

#### 5.4.1.4  
Does the result of running the following code surprise you? How do the select helpers deal with case by default? How can you change that default?  

```r
select(flights, contains("TIME"))
```

```
## # A tibble: 336,776 x 6
##    dep_time sched_dep_time arr_time sched_arr_time air_time
##       <int>          <int>    <int>          <int>    <dbl>
##  1      517            515      830            819      227
##  2      533            529      850            830      227
##  3      542            540      923            850      160
##  4      544            545     1004           1022      183
##  5      554            600      812            837      116
##  6      554            558      740            728      150
##  7      555            600      913            854      158
##  8      557            600      709            723       53
##  9      557            600      838            846      140
## 10      558            600      753            745      138
## # ... with 336,766 more rows, and 1 more variable: time_hour <dttm>
```
…
